module bitbucket.org/dmesko/moss

go 1.12

require (
	cloud.google.com/go v0.39.0
	github.com/NYTimes/gziphandler v1.1.1
	github.com/PuerkitoBio/goquery v1.5.0
	github.com/golang/mock v1.3.1 // indirect
	github.com/google/btree v1.0.0 // indirect
	github.com/google/go-cmp v0.3.0 // indirect
	github.com/google/pprof v0.0.0-20190515194954-54271f7e092f // indirect
	github.com/hashicorp/golang-lru v0.5.1 // indirect
	golang.org/x/crypto v0.0.0-20190513172903-22d7a77e9e5f // indirect
	golang.org/x/exp v0.0.0-20190510132918-efd6b22b2522 // indirect
	golang.org/x/image v0.0.0-20190516052701-61b8692d9a5c // indirect
	golang.org/x/lint v0.0.0-20190409202823-959b441ac422 // indirect
	golang.org/x/mobile v0.0.0-20190509164839-32b2708ab171 // indirect
	golang.org/x/net v0.0.0-20190514140710-3ec191127204 // indirect
	golang.org/x/oauth2 v0.0.0-20190517181255-950ef44c6e07 // indirect
	golang.org/x/sys v0.0.0-20190516110030-61b9204099cb // indirect
	golang.org/x/text v0.3.2 // indirect
	golang.org/x/time v0.0.0-20190308202827-9d24e82272b4 // indirect
	golang.org/x/tools v0.0.0-20190517183331-d88f79806bbd // indirect
	google.golang.org/appengine v1.6.0
	google.golang.org/genproto v0.0.0-20190516172635-bb713bdc0e52 // indirect
	google.golang.org/grpc v1.20.1 // indirect
	honnef.co/go/tools v0.0.0-20190418001031-e561f6794a2a // indirect
)
